%YAML 1.1
%TAG !u! tag:unity3d.com,2011:
--- !u!114 &11400000
MonoBehaviour:
  m_ObjectHideFlags: 0
  m_CorrespondingSourceObject: {fileID: 0}
  m_PrefabInternal: {fileID: 0}
  m_GameObject: {fileID: 0}
  m_Enabled: 1
  m_EditorHideFlags: 0
  m_Script: {fileID: 11500000, guid: d95998fcce6164aebb01dbfc36f1c3d0, type: 3}
  m_Name: Skeleton
  m_EditorClassIdentifier: 
  serializationData:
    SerializedFormat: 2
    SerializedBytes: 
    ReferencedUnityObjects: []
    SerializedBytesString: 
    Prefab: {fileID: 0}
    PrefabModificationsReferencedUnityObjects: []
    PrefabModifications: []
    SerializationNodes:
    - Name: effect
      Entry: 7
      Data: 0|System.Collections.Generic.List`1[[Shingen.IEffect, Assembly-CSharp]],
        mscorlib
    - Name: 
      Entry: 12
      Data: 1
    - Name: 
      Entry: 7
      Data: 1|Shingen.DirectDamage, Assembly-CSharp
    - Name: damage
      Entry: 3
      Data: 0
    - Name: 
      Entry: 8
      Data: 
    - Name: 
      Entry: 13
      Data: 
    - Name: 
      Entry: 8
      Data: 
  ManaSymbol: {fileID: 21300000, guid: 133fa7bf9b2c64565ab3964e5e397739, type: 3}
  Name: Skeleton
  Image: {fileID: 21300000, guid: baa6886f1719a4b5f842e143ef5c8de3, type: 3}
  ManaCost:
    stats:
    - Type: 3
      Value: 3
  ShopCost:
    stats:
    - Type: 0
      Value: 1
    - Type: 1
      Value: 1
  Description: 
  Health: 7
  Defense: 1
  Damage: 4
