%YAML 1.1
%TAG !u! tag:unity3d.com,2011:
--- !u!114 &11400000
MonoBehaviour:
  m_ObjectHideFlags: 0
  m_CorrespondingSourceObject: {fileID: 0}
  m_PrefabInternal: {fileID: 0}
  m_GameObject: {fileID: 0}
  m_Enabled: 1
  m_EditorHideFlags: 0
  m_Script: {fileID: 11500000, guid: 33d2c6045384c446291f02f35bf01d5e, type: 3}
  m_Name: Temple
  m_EditorClassIdentifier: 
  serializationData:
    SerializedFormat: 2
    SerializedBytes: 
    ReferencedUnityObjects: []
    SerializedBytesString: 
    Prefab: {fileID: 0}
    PrefabModificationsReferencedUnityObjects: []
    PrefabModifications: []
    SerializationNodes:
    - Name: effect
      Entry: 6
      Data: 
  ManaSymbol: {fileID: 21300000, guid: b33dcae488f214430a34fa7b45c5a9ec, type: 3}
  Name: Temple
  Image: {fileID: 21300000, guid: 32fa0c12349004dc5b44a4d8fd83c21a, type: 3}
  ManaCost:
    stats: []
  ShopCost:
    stats: []
  Description: 
  ressources:
    stats:
    - Type: 1
      Value: 6
    - Type: 0
      Value: 0
